Text Analysis in R
…
Explore our data

One of the most fundamental ways to explore our data is through counting words. Fortunately, dplyr has a function that makes this easy. We tack on the sort = TRUE argument to sort the output text. Lets explore a few different subsets of our data.

First, lets count the whole dataset.

lyrics_no_stop %>% 
  count(word, sort = TRUE)

## # A tibble: 711 x 2
##    word      n
##    <chr> <int>
##  1 blue     13
##  2 eyes     13
##  3 love     13
##  4 jewel    10
##  5 time     10
##  6 mind      9
##  7 doors     8
##  8 heart     8
##  9 eye       7
## 10 hold      7
## #  with 701 more rows

Now, lets look only at Buck Meeks most common words. These are some pleasant words.

lyrics_no_stop %>% 
  filter(artist_name == "Buck Meek") %>% 
  count(word, sort = TRUE)

## # A tibble: 370 x 2
##    word      n
##    <chr> <int>
##  1 blue     13
##  2 eyes     13
##  3 love     11
##  4 mind      9
##  5 hold      7
##  6 time      7
##  7 left      6
##  8 moons     6
##  9 gold      5
## 10 hole      5
## #  with 360 more rows
…
Now, lets take a look at the most common words for Full of Hell! These seem quite a bit darker. Without even cracking open our favorite sentiment lexicon, we can see that the words used by the two bands have quite a different vibe.

lyrics_no_stop %>% 
  filter(artist_name == "Full of Hell") %>% 
  count(word, sort = TRUE)

## # A tibble: 389 x 2
##    word         n
##    <chr>    <int>
##  1 jewel       10
##  2 heart        7
##  3 doors        6
##  4 eternal      6
##  5 rapture      6
##  6 dead         5
##  7 obsidian     5
##  8 weeping      5
##  9 cavern       4
## 10 crime        4
## #  with 379 more rows
…
This is something we can work with! The last action we need to take is to convert this into a data frame. We can do this with enframe(). The names of the vector (in this case the row numbers) correspond with the line numbers of the song, so were naming this variable line_number and the value is the line of lyrics, which were calling line.

candle_df <- candle_lyrics %>%
  str_split("\\n") %>% 
  unlist() %>% 
  str_remove("\\[\\D+\\d+\\]") %>% 
  str_remove("\\[\\D+\\]") %>% 
  na_if("") %>% 
  na.omit() %>% 
  enframe(name = "line_number", value = "line")

candle_df

## # A tibble: 24 x 2
##    line_number line                                                    
##          <int> <chr>                                                   
##  1           1 Innocence is a light beam, you're doing your thing      
##  2           2 With your arm out your window up Highway 9              
##  3           3 When it's too much to handle, burn me a candle          
##  4           4 If you don't have a candle, let me burn on your mind    
##  5           5 The song of the sirens caught up with me downwind       
##  6           6 My nose started bleeding by the second note             
##  7           7 Heaven is a motel with a telephone seashell             
##  8           8 Well, check-out's at eleven, and don't ask for more time
##  9           9 Well, did your eyes change? I remember them blue        
## 10          10 Or were they always hazel?                              
## #  with 14 more rows

Now, all you have to do to make this tidy is use unnest_tokens()!

candle_df %>% 
  unnest_tokens(word, line)

## # A tibble: 200 x 2
##    line_number word     
##          <int> <chr>    
##  1           1 innocence
##  2           1 is       
##  3           1 a        
##  4           1 light    
##  5           1 beam     
##  6           1 you're   
##  7           1 doing    
##  8           1 your     
##  9           1 thing    
## 10           2 with     
## #  with 190 more rows
